<deployment-project plugin="plugin.ezdeploy" plugin-version="1.0">
  <configuration build-checksum="1760657905" file="C:\Users\Basu\Documents\from the cloud\TLP_GUI_App_3.prj" location="C:\Users\Basu\Documents\from the cloud" name="TLP_GUI_App_3" preferred-package-location="C:\Users\Basu\Documents\from the cloud\Standalone\ESD_Analyzer_V1.1.21" preferred-package-type="package.type.exe" target="target.ezdeploy.standalone" target-name="Application Compiler">
    <param.appname>ESD_Analyzer_V1_1_29</param.appname>
    <param.icon>${PROJECT_ROOT}\TLP_GUI_App_3_resources\icon.ico</param.icon>
    <param.icons>
      <file>${PROJECT_ROOT}\TLP_GUI_App_3_resources\icon_48.png</file>
      <file>${PROJECT_ROOT}\TLP_GUI_App_3_resources\icon_32.png</file>
      <file>${PROJECT_ROOT}\TLP_GUI_App_3_resources\icon_24.png</file>
      <file>${PROJECT_ROOT}\TLP_GUI_App_3_resources\icon_16.png</file>
    </param.icons>
    <param.version>1.0</param.version>
    <param.authnamewatermark>J Jani,  S. Basu</param.authnamewatermark>
    <param.email>Jayesh.Jani@Infineon.com, Subhosri.Basu@infineon.com</param.email>
    <param.company>Infineon Technologies AG</param.company>
    <param.summary>Official Version V1.1.29</param.summary>
    <param.description>A new drop down menu (waveform plot) has been added in the SOA mode, which gives the plots of voltage and current vs time</param.description>
    <param.screenshot>${PROJECT_ROOT}\ESD Protection.png</param.screenshot>
    <param.guid />
    <param.installpath.string>\Infineon Technologies AG\ESD_Analyzer_V1_1_29\</param.installpath.string>
    <param.installpath.combo>option.installpath.programfiles</param.installpath.combo>
    <param.logo>${PROJECT_ROOT}\ESD Protection.png</param.logo>
    <param.install.notes />
    <param.target.install.notes />
    <param.intermediate>${PROJECT_ROOT}\Standalone\ESD_Analyzer_V1.1.29</param.intermediate>
    <param.files.only>${PROJECT_ROOT}\Standalone\ESD_Analyzer_V1.1.29</param.files.only>
    <param.output>${PROJECT_ROOT}\Standalone\ESD_Analyzer_V1.1.29</param.output>
    <param.logdir>${PROJECT_ROOT}\Standalone\ESD_Analyzer_V1.1.29</param.logdir>
    <param.enable.clean.build>false</param.enable.clean.build>
    <param.user.defined.mcr.options />
    <param.target.type>subtarget.standalone</param.target.type>
    <param.support.packages />
    <param.web.mcr>true</param.web.mcr>
    <param.package.mcr>false</param.package.mcr>
    <param.no.mcr>false</param.no.mcr>
    <param.web.mcr.name>MyAppInstaller_web</param.web.mcr.name>
    <param.package.mcr.name>MyAppInstaller_mcr</param.package.mcr.name>
    <param.no.mcr.name>MyAppInstaller_app</param.no.mcr.name>
    <param.windows.command.prompt>true</param.windows.command.prompt>
    <param.create.log>false</param.create.log>
    <param.log.file />
    <param.native.matlab>false</param.native.matlab>
    <param.checkbox>false</param.checkbox>
    <param.example />
    <param.help.text>Syntax 
	  -? 
	 
 Input Arguments 
	 -?  print help on how to use the application 
	 input arguments</param.help.text>
    <unset>
      <param.version />
      <param.guid />
      <param.installpath.string />
      <param.installpath.combo />
      <param.install.notes />
      <param.target.install.notes />
      <param.enable.clean.build />
      <param.user.defined.mcr.options />
      <param.target.type />
      <param.support.packages />
      <param.web.mcr />
      <param.package.mcr />
      <param.no.mcr />
      <param.web.mcr.name />
      <param.package.mcr.name />
      <param.no.mcr.name />
      <param.windows.command.prompt />
      <param.create.log />
      <param.log.file />
      <param.native.matlab />
      <param.checkbox />
      <param.example />
    </unset>
    <fileset.main>
      <file>${PROJECT_ROOT}\TLP_GUI_App_3.mlapp</file>
    </fileset.main>
    <fileset.resources>
      <file>${PROJECT_ROOT}\add_legend_IV_Curve.m</file>
      <file>${PROJECT_ROOT}\add_legend_IV_Curve_SPOT.m</file>
      <file>${PROJECT_ROOT}\add_legend_SPOT.m</file>
      <file>${PROJECT_ROOT}\add_legend_sweep.m</file>
      <file>${PROJECT_ROOT}\add_prefix.m</file>
      <file>${PROJECT_ROOT}\add_titel_to_plot.m</file>
      <file>${PROJECT_ROOT}\add_titel_to_plot_IV_SPOT.m</file>
      <file>${PROJECT_ROOT}\autodection_wafermap.m</file>
      <file>${PROJECT_ROOT}\calc_V_breakdown_knickpoint.m</file>
      <file>${PROJECT_ROOT}\calc_V_breakdown_no_snapback.m</file>
      <file>${PROJECT_ROOT}\calc_V_breakdown_withSnapback.m</file>
      <file>${PROJECT_ROOT}\calcCDF.m</file>
      <file>${PROJECT_ROOT}\calcVtrigVhold.m</file>
      <file>${PROJECT_ROOT}\cell2str.m</file>
      <file>${PROJECT_ROOT}\check_sweep.m</file>
      <file>${PROJECT_ROOT}\cm_wafer.mat</file>
      <file>${PROJECT_ROOT}\Color_Interface.mlapp</file>
      <file>${PROJECT_ROOT}\concatenate_legend.m</file>
      <file>${PROJECT_ROOT}\concatenate_titel.m</file>
      <file>${PROJECT_ROOT}\createExcelSummaryTable.m</file>
      <file>${PROJECT_ROOT}\createLatexFile2.m</file>
      <file>${PROJECT_ROOT}\createLatexFile2_GTS.m</file>
      <file>${PROJECT_ROOT}\Criteria.m</file>
      <file>${PROJECT_ROOT}\Criteria_GTS.m</file>
      <file>${PROJECT_ROOT}\Criteria_SOA.m</file>
      <file>${PROJECT_ROOT}\CSV_File_Header.m</file>
      <file>${PROJECT_ROOT}\Data_generieren.m</file>
      <file>${PROJECT_ROOT}\dirr.m</file>
      <file>${PROJECT_ROOT}\escapeFunction.m</file>
      <file>${PROJECT_ROOT}\ESD Protection.png</file>
      <file>${PROJECT_ROOT}\ESD_Analyze.prj</file>
      <file>${PROJECT_ROOT}\ESD_Analyzer_doc.pdf</file>
      <file>${PROJECT_ROOT}\ESD_Analyzer_doc_111_old_version.pdf</file>
      <file>${PROJECT_ROOT}\extract_gts_data.m</file>
      <file>${PROJECT_ROOT}\extract_statistic_values.m</file>
      <file>${PROJECT_ROOT}\Fehlermeldung.xlsx</file>
      <file>${PROJECT_ROOT}\generate_pdf.m</file>
      <file>${PROJECT_ROOT}\generate_wafermap2.m</file>
      <file>${PROJECT_ROOT}\get_checkboxen_new.m</file>
      <file>${PROJECT_ROOT}\get_criteriaParams.m</file>
      <file>${PROJECT_ROOT}\get_data.m</file>
      <file>${PROJECT_ROOT}\Get_Titel_Checkboxen.m</file>
      <file>${PROJECT_ROOT}\GTS_analyse_vTG_v07_12.m</file>
      <file>${PROJECT_ROOT}\HBM_calculations.m</file>
      <file>${PROJECT_ROOT}\INFINEON_LOGO.PNG</file>
      <file>${PROJECT_ROOT}\lineSelector.mlapp</file>
      <file>${PROJECT_ROOT}\matlab.mat</file>
      <file>${PROJECT_ROOT}\mktable.m</file>
      <file>${PROJECT_ROOT}\mywaitbar.m</file>
      <file>${PROJECT_ROOT}\PackagingLog.html</file>
      <file>${PROJECT_ROOT}\path2strc.m</file>
      <file>${PROJECT_ROOT}\PeaksSurface.png</file>
      <file>${PROJECT_ROOT}\Plot_IV.m</file>
      <file>${PROJECT_ROOT}\Plot_IV_Spot.m</file>
      <file>${PROJECT_ROOT}\Plot_Spot.m</file>
      <file>${PROJECT_ROOT}\plot_statistik_png.m</file>
      <file>${PROJECT_ROOT}\Plot_Sweep.m</file>
      <file>${PROJECT_ROOT}\pushbutton16_image.png</file>
      <file>${PROJECT_ROOT}\pushbutton25_image.png</file>
      <file>${PROJECT_ROOT}\pushbutton7_image.png</file>
      <file>${PROJECT_ROOT}\pushbutton8_image.png</file>
      <file>${PROJECT_ROOT}\Quick_Guide.pdf</file>
      <file>${PROJECT_ROOT}\R_ON_Rechnen.m</file>
      <file>${PROJECT_ROOT}\R_ON_Rechnen_IV_Spot.m</file>
      <file>${PROJECT_ROOT}\Rdyn.m</file>
      <file>${PROJECT_ROOT}\Rdyn2.m</file>
      <file>${PROJECT_ROOT}\requiredMCRProducts.txt</file>
      <file>${PROJECT_ROOT}\SOA_mode2_App.mlapp</file>
      <file>${PROJECT_ROOT}\startup.m</file>
      <file>${PROJECT_ROOT}\statistics.m</file>
      <file>${PROJECT_ROOT}\switch_notch_position2.m</file>
      <file>${PROJECT_ROOT}\testdata.xlsx</file>
      <file>${PROJECT_ROOT}\Testjournal_Template.xlsx</file>
      <file>${PROJECT_ROOT}\TLP_analyse_vTG_v07_12.m</file>
      <file>${PROJECT_ROOT}\TLP_GUI_App_3.mlapp</file>
      <file>${PROJECT_ROOT}\TLP_GUI_App_3.prj</file>
      <file>${PROJECT_ROOT}\TLP_GUI_App_3_report.html</file>
      <file>${PROJECT_ROOT}\uipickfiles.m</file>
      <file>${PROJECT_ROOT}\V_hold_intersection_V_bereich.m</file>
      <file>${PROJECT_ROOT}\V_hold_snapback_SOAMode.m</file>
      <file>${PROJECT_ROOT}\V_holding.xlsx</file>
      <file>${PROJECT_ROOT}\Vhold_Intersection_SOA.m</file>
      <file>${PROJECT_ROOT}\Vhold_SoaMode.m</file>
      <file>${PROJECT_ROOT}\Vt2_SOAMode.m</file>
      <file>${PROJECT_ROOT}\Wafermap_emtyfile.m</file>
      <file>${PROJECT_ROOT}\wafermap_sandy2.m</file>
      <file>${PROJECT_ROOT}\waitingbar.gif</file>
      <file>${PROJECT_ROOT}\write_in_one_pdf.m</file>
      <file>${PROJECT_ROOT}\write_in_one_pdf_no_sweep.m</file>
      <file>${PROJECT_ROOT}\write_plot_statistics.m</file>
      <file>${PROJECT_ROOT}\write_plot_statistics_scatter.m</file>
      <file>${PROJECT_ROOT}\write_sample_latex.m</file>
      <file>${PROJECT_ROOT}\write_sample_latex_no_sweep.m</file>
      <file>${PROJECT_ROOT}\write_wafermap_tex.m</file>
    </fileset.resources>
    <fileset.package />
    <fileset.depfun>
      <file>${MATLAB_ROOT}\toolbox\local\userpath.m</file>
      <file>${PROJECT_ROOT}\add_legend_Addendum_Plot.m</file>
      <file>${PROJECT_ROOT}\add_legend_Waveform_Plot.m</file>
    </fileset.depfun>
    <build-deliverables>
      <file location="${PROJECT_ROOT}\Standalone\ESD_Analyzer_V1.1.29" name="ESD_Analyzer_V1_1_29.exe" optional="false">C:\Users\Basu\Documents\from the cloud\Standalone\ESD_Analyzer_V1.1.29\ESD_Analyzer_V1_1_29.exe</file>
      <file location="${PROJECT_ROOT}\Standalone\ESD_Analyzer_V1.1.29" name="readme.txt" optional="true">C:\Users\Basu\Documents\from the cloud\Standalone\ESD_Analyzer_V1.1.29\readme.txt</file>
      <file location="${PROJECT_ROOT}\Standalone\ESD_Analyzer_V1.1.29" name="splash.png" optional="false">C:\Users\Basu\Documents\from the cloud\Standalone\ESD_Analyzer_V1.1.29\splash.png</file>
    </build-deliverables>
    <workflow />
    <matlab>
      <root>C:\Program Files\Matlab\R2021b</root>
      <toolboxes>
        <toolbox name="matlabcoder" />
        <toolbox name="embeddedcoder" />
        <toolbox name="gpucoder" />
        <toolbox name="fixedpoint" />
        <toolbox name="matlabhdlcoder" />
        <toolbox name="neuralnetwork" />
      </toolboxes>
      <toolbox>
        <matlabcoder>
          <enabled>true</enabled>
        </matlabcoder>
      </toolbox>
      <toolbox>
        <embeddedcoder>
          <enabled>true</enabled>
        </embeddedcoder>
      </toolbox>
      <toolbox>
        <gpucoder>
          <enabled>true</enabled>
        </gpucoder>
      </toolbox>
      <toolbox>
        <fixedpoint>
          <enabled>true</enabled>
        </fixedpoint>
      </toolbox>
      <toolbox>
        <matlabhdlcoder>
          <enabled>true</enabled>
        </matlabhdlcoder>
      </toolbox>
      <toolbox>
        <neuralnetwork>
          <enabled>true</enabled>
        </neuralnetwork>
      </toolbox>
    </matlab>
    <platform>
      <unix>false</unix>
      <mac>false</mac>
      <windows>true</windows>
      <win2k>false</win2k>
      <winxp>false</winxp>
      <vista>false</vista>
      <linux>false</linux>
      <solaris>false</solaris>
      <osver>10.0</osver>
      <os32>false</os32>
      <os64>true</os64>
      <arch>win64</arch>
      <matlab>true</matlab>
    </platform>
  </configuration>
</deployment-project>