\relax 
\providecommand\hyper@newdestlabel[2]{}
\providecommand\HyperFirstAtBeginDocument{\AtBeginDocument}
\HyperFirstAtBeginDocument{\ifx\hyper@anchor\@undefined
\global\let\oldcontentsline\contentsline
\gdef\contentsline#1#2#3#4{\oldcontentsline{#1}{#2}{#3}}
\global\let\oldnewlabel\newlabel
\gdef\newlabel#1#2{\newlabelxx{#1}#2}
\gdef\newlabelxx#1#2#3#4#5#6{\oldnewlabel{#1}{{#2}{#3}}}
\AtEndDocument{\ifx\hyper@anchor\@undefined
\let\contentsline\oldcontentsline
\let\newlabel\oldnewlabel
\fi}
\fi}
\global\let\hyper@last\relax 
\gdef\HyperFirstAtBeginDocument#1{#1}
\providecommand\HyField@AuxAddToFields[1]{}
\providecommand\HyField@AuxAddToCoFields[2]{}
\@writefile{toc}{\contentsline {section}{\numberline {1}Installation}{3}{section.2}\protected@file@percent }
\@writefile{toc}{\contentsline {section}{\numberline {2}Overview}{6}{section.7}\protected@file@percent }
\@writefile{toc}{\contentsline {section}{\numberline {3}Data List}{7}{section.8}\protected@file@percent }
\@writefile{toc}{\contentsline {subsection}{\numberline {3.1}Restore settings}{7}{subsection.9}\protected@file@percent }
\@writefile{toc}{\contentsline {subsection}{\numberline {3.2}Specifiy measurement data}{7}{subsection.10}\protected@file@percent }
\@writefile{toc}{\contentsline {subsection}{\numberline {3.3}Filter}{8}{subsection.13}\protected@file@percent }
\@writefile{toc}{\contentsline {subsection}{\numberline {3.4}Folder Name}{8}{subsection.14}\protected@file@percent }
\@writefile{toc}{\contentsline {section}{\numberline {4}Settings}{10}{section.15}\protected@file@percent }
\@writefile{toc}{\contentsline {subsection}{\numberline {4.1}HBM Mode}{11}{subsection.18}\protected@file@percent }
\@writefile{toc}{\contentsline {subsection}{\numberline {4.2}Criterions}{11}{subsection.19}\protected@file@percent }
\@writefile{toc}{\contentsline {subsubsection}{\numberline {4.2.1}Import from Measurement Data}{11}{subsubsection.20}\protected@file@percent }
\@writefile{toc}{\contentsline {subsubsection}{\numberline {4.2.2}Spot 1 Delta Mean/Spot 2 Delta Mean}{11}{subsubsection.21}\protected@file@percent }
\@writefile{loa}{\contentsline {algorithm}{\numberline {1}{\ignorespaces Spot Delta Mean\relax }}{12}{algorithm.22}\protected@file@percent }
\providecommand*\caption@xref[2]{\@setref\relax\@undefined{#1}}
\newlabel{euclid}{{1}{12}{Spot Delta Mean\relax }{algorithm.22}{}}
\@writefile{toc}{\contentsline {subsubsection}{\numberline {4.2.3}Two Spots Delta}{12}{subsubsection.23}\protected@file@percent }
\@writefile{loa}{\contentsline {algorithm}{\numberline {2}{\ignorespaces Two Spots Delta\relax }}{12}{algorithm.24}\protected@file@percent }
\newlabel{twoSpotsMean}{{2}{12}{Two Spots Delta\relax }{algorithm.24}{}}
\@writefile{toc}{\contentsline {subsubsection}{\numberline {4.2.4}Spot1 Delta Prevalue/Spot2 Delta Prevalue}{13}{subsubsection.25}\protected@file@percent }
\@writefile{loa}{\contentsline {algorithm}{\numberline {3}{\ignorespaces Spot Delta Prevalue\relax }}{13}{algorithm.26}\protected@file@percent }
\newlabel{prevalue}{{3}{13}{Spot Delta Prevalue\relax }{algorithm.26}{}}
\@writefile{toc}{\contentsline {subsubsection}{\numberline {4.2.5}Two Spots Delta Prevalue}{14}{subsubsection.27}\protected@file@percent }
\@writefile{loa}{\contentsline {algorithm}{\numberline {4}{\ignorespaces Two Spots-Delta-Prevalue\relax }}{14}{algorithm.28}\protected@file@percent }
\newlabel{twoSpotsPrevalue}{{4}{14}{Two Spots-Delta-Prevalue\relax }{algorithm.28}{}}
\@writefile{toc}{\contentsline {subsubsection}{\numberline {4.2.6}Voltage Peak}{14}{subsubsection.29}\protected@file@percent }
\@writefile{loa}{\contentsline {algorithm}{\numberline {5}{\ignorespaces Voltage Peak\relax }}{14}{algorithm.30}\protected@file@percent }
\@writefile{toc}{\contentsline {subsubsection}{\numberline {4.2.7}Spot1 Min Limit/Spot2 Min Limit}{15}{subsubsection.31}\protected@file@percent }
\@writefile{loa}{\contentsline {algorithm}{\numberline {6}{\ignorespaces Min Limit\relax }}{15}{algorithm.32}\protected@file@percent }
\newlabel{minLimit}{{6}{15}{Min Limit\relax }{algorithm.32}{}}
\@writefile{toc}{\contentsline {subsubsection}{\numberline {4.2.8}Spot1 Max Limit/Spot2 Max Limit}{15}{subsubsection.33}\protected@file@percent }
\@writefile{loa}{\contentsline {algorithm}{\numberline {7}{\ignorespaces Max Limit\relax }}{15}{algorithm.34}\protected@file@percent }
\newlabel{maxLimit}{{7}{15}{Max Limit\relax }{algorithm.34}{}}
\@writefile{toc}{\contentsline {subsubsection}{\numberline {4.2.9}Spot12 Min/Spot12 Max Limit}{16}{subsubsection.35}\protected@file@percent }
\@writefile{loa}{\contentsline {algorithm}{\numberline {8}{\ignorespaces Spot12 Min/Max Limit\relax }}{16}{algorithm.36}\protected@file@percent }
\newlabel{minmaxLimit}{{8}{16}{Spot12 Min/Max Limit\relax }{algorithm.36}{}}
\@writefile{toc}{\contentsline {subsubsection}{\numberline {4.2.10}Spot1-Prevalue variation/Spot2-Prevalue variation}{16}{subsubsection.37}\protected@file@percent }
\@writefile{loa}{\contentsline {algorithm}{\numberline {9}{\ignorespaces Spot Prevalue variation\relax }}{16}{algorithm.38}\protected@file@percent }
\newlabel{prevalue}{{9}{16}{Spot Prevalue variation\relax }{algorithm.38}{}}
\@writefile{toc}{\contentsline {subsubsection}{\numberline {4.2.11}Two Spots Prevalue variation}{17}{subsubsection.39}\protected@file@percent }
\@writefile{loa}{\contentsline {algorithm}{\numberline {10}{\ignorespaces Two Spots Prevalue variation\relax }}{17}{algorithm.40}\protected@file@percent }
\newlabel{twoSpotsPrevalue}{{10}{17}{Two Spots Prevalue variation\relax }{algorithm.40}{}}
\@writefile{toc}{\contentsline {subsubsection}{\numberline {4.2.12}No Spots}{17}{subsubsection.41}\protected@file@percent }
\@writefile{toc}{\contentsline {section}{\numberline {5}Wafermap}{18}{section.42}\protected@file@percent }
\@writefile{toc}{\contentsline {subsection}{\numberline {5.1}Wafer Size}{18}{subsection.43}\protected@file@percent }
\@writefile{toc}{\contentsline {subsection}{\numberline {5.2}Colorbar Range}{18}{subsection.46}\protected@file@percent }
\@writefile{toc}{\contentsline {subsection}{\numberline {5.3}Target Value and Critical Area}{18}{subsection.47}\protected@file@percent }
\@writefile{toc}{\contentsline {section}{\numberline {6}Correlations}{19}{section.49}\protected@file@percent }
\@writefile{loa}{\contentsline {algorithm}{\numberline {11}{\ignorespaces Calculate $I_{\text  {at}V}$ \textbf  {if} $I_{t2} > 0$\relax }}{21}{algorithm.50}\protected@file@percent }
\newlabel{calcIatVpos}{{11}{21}{Calculate $I_{\text {at}V}$ \textbf {if} $I_{t2} > 0$\relax }{algorithm.50}{}}
\newlabel{IatV}{{11}{21}{Calculate $I_{\text {at}V}$ \textbf {if} $I_{t2} > 0$\relax }{algorithm.50}{}}
\@writefile{loa}{\contentsline {algorithm}{\numberline {12}{\ignorespaces Calculate $V_{\text  {at}I}$ \textbf  {if} $I_{t2} < 0$\relax }}{21}{algorithm.51}\protected@file@percent }
\newlabel{calcVatIneg}{{12}{21}{Calculate $V_{\text {at}I}$ \textbf {if} $I_{t2} < 0$\relax }{algorithm.51}{}}
\newlabel{VatI}{{12}{21}{Calculate $V_{\text {at}I}$ \textbf {if} $I_{t2} < 0$\relax }{algorithm.51}{}}
\@writefile{toc}{\contentsline {section}{\numberline {7}Dynamic Resistance}{21}{section.53}\protected@file@percent }
\@writefile{loa}{\contentsline {algorithm}{\numberline {13}{\ignorespaces Calculate $V_{\text  {clamp}}$ \textbf  {if} $I_{t2} > 0$\relax }}{22}{algorithm.52}\protected@file@percent }
\newlabel{calcVclamppos}{{13}{22}{Calculate $V_{\text {clamp}}$ \textbf {if} $I_{t2} > 0$\relax }{algorithm.52}{}}
\newlabel{Vclamp}{{13}{22}{Calculate $V_{\text {clamp}}$ \textbf {if} $I_{t2} > 0$\relax }{algorithm.52}{}}
\@writefile{toc}{\contentsline {subsection}{\numberline {7.1}Breakdown Voltage}{22}{subsection.54}\protected@file@percent }
\@writefile{loa}{\contentsline {algorithm}{\numberline {14}{\ignorespaces Calculate breakdown voltage\relax }}{23}{algorithm.55}\protected@file@percent }
\newlabel{breakdown}{{14}{23}{Calculate breakdown voltage\relax }{algorithm.55}{}}
\@writefile{toc}{\contentsline {subsection}{\numberline {7.2}Snapback}{24}{subsection.56}\protected@file@percent }
\@writefile{toc}{\contentsline {section}{\numberline {8}Save Setting File}{24}{section.57}\protected@file@percent }
\newlabel{sec:save_settings}{{8}{24}{Save Setting File}{section.57}{}}
\@writefile{toc}{\contentsline {section}{\numberline {9}Report Directory}{25}{section.58}\protected@file@percent }
\@writefile{toc}{\contentsline {section}{\numberline {10}Start Program}{25}{section.59}\protected@file@percent }
\@writefile{toc}{\contentsline {section}{\numberline {11}Miscellaneous Information}{26}{section.60}\protected@file@percent }
\@writefile{toc}{\contentsline {subsection}{\numberline {11.1}Version Number}{26}{subsection.61}\protected@file@percent }
